
************* 01-10-2020 14:33:41 *************
Index was outside the bounds of the array.-------   at Znode.Engine.TaskScheduler.ProductFeedHelper.GetModelFromArguments(String arguments)
   at Znode.Engine.TaskScheduler.ProductFeedHelper.InvokeMethod(String[] args)
   at Znode.Engine.TaskScheduler.Program.Main(String[] args)
***********************************************
