
************* 26-08-2020 15:43:49 *************
26-08-2020 15:43:49-- API Call Success.------API called http://localhost:44762//search/createindex/drewshoes1111/PRODUCTION/5/458/458 
***********************************************

************* 26-08-2020 15:43:49 *************
Indexer|5|drewshoes1111|5|458|Manually|http://localhost:44762/|2|458|PRODUCTION|bG9jYWxob3N0OjY3NjZ8|0|600000
***********************************************

************* 26-08-2020 15:48:32 *************
26-08-2020 15:48:32-- API Call Success.------API called http://localhost:44762//search/createindex/drewshoes1111/PRODUCTION/5/459/459 
***********************************************

************* 26-08-2020 15:48:32 *************
Indexer|5|drewshoes1111|5|459|Manually|http://localhost:44762/|2|459|PRODUCTION|bG9jYWxob3N0OjY3NjZ8|0|600000
***********************************************

************* 26-08-2020 15:55:08 *************
26-08-2020 15:55:08-- API Call Success.------API called http://localhost:44762//search/createindex/drewshoes1111/PRODUCTION/5/460/460 
***********************************************

************* 26-08-2020 15:55:08 *************
Indexer|5|drewshoes1111|5|460|Manually|http://localhost:44762/|2|460|PRODUCTION|bG9jYWxob3N0OjY3NjZ8|0|600000
***********************************************

************* 26-08-2020 16:26:24 *************
26-08-2020 16:26:24-- API Call Success.------API called http://localhost:44762//search/createindex/drewshoes1111/PRODUCTION/5/461/461 
***********************************************

************* 26-08-2020 16:26:24 *************
Indexer|5|drewshoes1111|5|461|Manually|http://localhost:44762/|2|461|PRODUCTION|bG9jYWxob3N0OjY3NjZ8|0|600000
***********************************************

************* 26-08-2020 16:33:59 *************
26-08-2020 16:33:59-- API Call Success.------API called http://localhost:44762//search/createindex/drewshoes1111/PRODUCTION/5/462/462 
***********************************************

************* 26-08-2020 16:33:59 *************
Indexer|5|drewshoes1111|5|462|Manually|http://localhost:44762/|2|462|PRODUCTION|bG9jYWxob3N0OjY3NjZ8|0|600000
***********************************************
