
************* 24-09-2020 11:06:51 *************
24-09-2020 11:06:51-- API Call Success.------API called http://localhost:44762//search/createindex/drewshoes/PRODUCTION/5/691/691 
***********************************************

************* 24-09-2020 11:06:51 *************
Indexer|5|drewshoes|5|691|Manually|http://localhost:44762/|2|691|PRODUCTION|bG9jYWxob3N0OjY3NjZ8|0|600000
***********************************************
