
************* 23-09-2020 00:00:01 *************
http://localhost:44762/giftcard/sendvoucherexpirationreminderemail
***********************************************

************* 23-09-2020 00:00:02 *************
Email schedular method Called and Set request parameter.
***********************************************

************* 23-09-2020 00:00:06 *************
Email schedular - Failed: Unable to connect to the remote server , StackTrace:    at System.Net.HttpWebRequest.GetResponse()
   at Znode.Engine.TaskScheduler.VoucherEmailHelper.CallVoucherEmailAPI(String apiDomainURL, String userId, String token)
***********************************************
